%YAML 1.1
%TAG !u! tag:unity3d.com,2011:
--- !u!1045 &1
EditorBuildSettings:
  m_ObjectHideFlags: 0
  serializedVersion: 2
  m_Scenes:
  - enabled: 1
    path: Assets/Scenes/Pantalla Titulo.unity
    guid: 943c711b7938bba498a5a5593c8d4219
  - enabled: 1
    path: Assets/Scenes/Nivel 1.unity
    guid: 99c9720ab356a0642a771bea13969a05
  - enabled: 1
    path: Assets/Scenes/Nivel 5.unity
    guid: 0a9aa08f891501d469e585a8594f2403
  - enabled: 1
    path: Assets/Scenes/Nivel 8.unity
    guid: 5df9f480633134342a833708471422ae
  - enabled: 1
    path: Assets/Scenes/Nivel 6.unity
    guid: d59ca22fe5f6c89498c82be00b8679dc
  - enabled: 1
    path: Assets/Scenes/Nivel 2.unity
    guid: 585d39b98fa0ca445aad75f9f58b0692
  - enabled: 1
    path: Assets/Scenes/Nivel 7.unity
    guid: 3edc563d2117d9541a848f830276361f
  - enabled: 1
    path: Assets/Scenes/Nivel 3.unity
    guid: d800c435d36e32e4ea9fd0f608c1236b
  - enabled: 1
    path: Assets/Scenes/Nivel 4.unity
    guid: 7a016c39a2124c9499f86375cf3ea4b1
  - enabled: 1
    path: Assets/Scenes/Perdiste.unity
    guid: 8b3af1cb5709cbf419b6fa36267fd309
  - enabled: 1
    path: Assets/Scenes/Ganaste.unity
    guid: 7f4663da894ce8d43addda41aeb0a4aa
  m_configObjects: {}
